<svg width="236" height="236" viewBox="0 0 236 236" fill="none" xmlns="http://www.w3.org/2000/svg">
<g filter="url(#filter0_d)">
<path d="M220.759 114C220.759 172.961 172.961 220.759 114 220.759C55.0389 220.759 7.24139 172.961 7.24139 114C7.24139 55.0389 55.0389 7.24139 114 7.24139C172.961 7.24139 220.759 55.0389 220.759 114Z" stroke="white" stroke-width="2"/>
</g>
<g filter="url(#filter1_b)">
<path d="M107.945 114.246C105.761 118.194 103.913 123.234 102.401 129.366C100.889 135.498 100.133 141.294 100.133 146.754C100.133 152.214 100.385 157.296 100.889 162C98.7054 162.168 97.4034 162.252 96.9834 162.252C89.6754 162.252 86.0214 158.682 86.0214 151.542C86.0214 148.938 86.9034 142.47 88.6674 132.138C90.5154 121.806 91.4394 114.078 91.4394 108.954C91.4394 103.746 89.5074 101.142 85.6434 101.142C80.8554 101.142 75.9834 105.762 71.0274 115.002C66.0714 124.242 63.5934 135.456 63.5934 148.644C63.5934 152.844 63.8454 157.296 64.3494 162C62.1654 162.168 60.8634 162.252 60.4434 162.252C53.1354 162.252 49.4814 158.682 49.4814 151.542C49.4814 150.618 50.3214 144.36 52.0014 132.768C53.7654 121.176 54.6474 112.02 54.6474 105.3C54.6474 98.496 53.9334 92.28 52.5054 86.652C57.5454 88.584 61.0314 91.356 62.9634 94.968C64.9794 98.58 65.9874 103.032 65.9874 108.324C65.9874 111.012 65.6934 114.414 65.1054 118.53C67.9614 110.13 71.9094 103.158 76.9494 97.614C81.9894 92.07 86.6094 89.298 90.8094 89.298C100.217 89.298 104.921 96.564 104.921 111.096C108.029 104.376 111.599 99.084 115.631 95.22C119.747 91.272 123.569 89.298 127.097 89.298C132.221 89.298 135.833 90.852 137.933 93.96C140.033 96.984 141.083 101.142 141.083 106.434C141.083 111.642 140.243 118.992 138.563 128.484C136.967 137.976 136.169 144.906 136.169 149.274C136.169 153.558 136.715 156.708 137.807 158.724C138.899 160.656 140.747 162.336 143.351 163.764C142.259 163.848 140.705 163.89 138.689 163.89C133.313 163.89 129.323 162.798 126.719 160.614C124.199 158.346 122.939 154.524 122.939 149.148C122.939 146.04 123.779 139.782 125.459 130.374C127.139 120.882 127.979 113.91 127.979 109.458C127.979 103.914 126.047 101.142 122.183 101.142C119.999 101.142 117.647 102.318 115.127 104.67C112.607 107.022 110.213 110.214 107.945 114.246ZM190.038 92.952C190.038 96.48 189.366 98.916 188.022 100.26C186.678 101.604 184.704 102.276 182.1 102.276H173.028C172.692 104.46 171.81 109.668 170.382 117.9C167.526 133.524 166.098 145.326 166.098 153.306C166.098 161.286 166.686 166.578 167.862 169.182C163.074 167.418 159.672 164.772 157.656 161.244C155.64 157.632 154.632 153.264 154.632 148.14C154.632 143.016 154.926 138.186 155.514 133.65C156.186 129.03 157.11 123.654 158.286 117.522C159.462 111.39 160.302 106.476 160.806 102.78C156.018 103.452 151.314 104.796 146.694 106.812C146.526 105.468 146.442 104.25 146.442 103.158C146.442 99.126 147.786 96.438 150.474 95.094C153.162 93.666 157.026 92.952 162.066 92.952C162.654 86.736 162.948 82.116 162.948 79.092C162.948 75.984 162.906 73.506 162.822 71.658C162.822 69.81 162.822 68.424 162.822 67.5C166.686 68.088 169.668 69.81 171.768 72.666C173.868 75.438 174.918 79.26 174.918 84.132C174.918 86.652 174.708 89.718 174.288 93.33C181.596 93.33 186.762 92.112 189.786 89.676C189.954 90.852 190.038 91.944 190.038 92.952Z" fill="#F3F3F3"/>
<path d="M107.945 114.246L107.074 113.756L107.07 113.762L107.945 114.246ZM102.401 129.366L101.43 129.127L101.43 129.127L102.401 129.366ZM100.889 162L100.966 162.997L101.993 162.918L101.884 161.893L100.889 162ZM88.6674 132.138L87.683 131.962L87.6817 131.97L88.6674 132.138ZM71.0274 115.002L70.1462 114.529L70.1462 114.529L71.0274 115.002ZM64.3494 162L64.4261 162.997L65.4535 162.918L65.3437 161.893L64.3494 162ZM52.0014 132.768L51.0127 132.618L51.0117 132.625L52.0014 132.768ZM52.5054 86.652L52.8633 85.7182L51.0615 85.0276L51.5361 86.8979L52.5054 86.652ZM62.9634 94.968L62.0816 95.4397L62.0858 95.4475L62.0902 95.4554L62.9634 94.968ZM65.1054 118.53L64.1154 118.389L66.0522 118.852L65.1054 118.53ZM76.9494 97.614L76.2095 96.9413L76.2095 96.9413L76.9494 97.614ZM104.921 111.096H103.921L105.829 111.516L104.921 111.096ZM115.631 95.22L116.323 95.942L116.324 95.9417L115.631 95.22ZM137.933 93.96L137.105 94.5199L137.112 94.5304L137.933 93.96ZM138.563 128.484L137.579 128.31L137.577 128.318L138.563 128.484ZM137.807 158.724L136.928 159.2L136.932 159.208L136.937 159.216L137.807 158.724ZM143.351 163.764L143.428 164.761L146.779 164.503L143.832 162.887L143.351 163.764ZM126.719 160.614L126.05 161.357L126.063 161.369L126.077 161.38L126.719 160.614ZM125.459 130.374L126.444 130.55L126.444 130.548L125.459 130.374ZM115.127 104.67L114.445 103.939L114.445 103.939L115.127 104.67ZM107.07 113.762C104.831 117.811 102.956 122.94 101.43 129.127L103.372 129.605C104.871 123.528 106.692 118.577 108.82 114.73L107.07 113.762ZM101.43 129.127C99.9021 135.325 99.1334 141.202 99.1334 146.754H101.133C101.133 141.386 101.877 135.671 103.372 129.605L101.43 129.127ZM99.1334 146.754C99.1334 152.244 99.3868 157.362 99.8951 162.107L101.884 161.893C101.384 157.23 101.133 152.184 101.133 146.754H99.1334ZM100.813 161.003C98.6078 161.173 97.3548 161.252 96.9834 161.252V163.252C97.452 163.252 98.803 163.163 100.966 162.997L100.813 161.003ZM96.9834 161.252C93.4778 161.252 91.0333 160.396 89.4607 158.859C87.8924 157.327 87.0214 154.952 87.0214 151.542H85.0214C85.0214 155.272 85.9774 158.252 88.0631 160.29C90.1445 162.323 93.181 163.252 96.9834 163.252V161.252ZM87.0214 151.542C87.0214 149.042 87.8837 142.67 89.6531 132.306L87.6817 131.97C85.9231 142.27 85.0214 148.834 85.0214 151.542H87.0214ZM89.6518 132.314C91.5017 121.971 92.4394 114.171 92.4394 108.954H90.4394C90.4394 113.985 89.529 121.641 87.683 131.962L89.6518 132.314ZM92.4394 108.954C92.4394 106.256 91.944 104.05 90.7935 102.499C89.6015 100.892 87.8235 100.142 85.6434 100.142V102.142C87.3273 102.142 88.4473 102.693 89.1873 103.691C89.9688 104.744 90.4394 106.444 90.4394 108.954H92.4394ZM85.6434 100.142C82.9057 100.142 80.2569 101.467 77.7103 103.881C75.166 106.294 72.6496 109.862 70.1462 114.529L71.9086 115.475C74.3612 110.902 76.7588 107.54 79.0865 105.333C81.4119 103.127 83.5931 102.142 85.6434 102.142V100.142ZM70.1462 114.529C65.0946 123.947 62.5934 135.333 62.5934 148.644H64.5934C64.5934 135.579 67.0482 124.537 71.9086 115.475L70.1462 114.529ZM62.5934 148.644C62.5934 152.884 62.8478 157.371 63.3551 162.107L65.3437 161.893C64.843 157.221 64.5934 152.804 64.5934 148.644H62.5934ZM64.2727 161.003C62.0678 161.173 60.8148 161.252 60.4434 161.252V163.252C60.912 163.252 62.263 163.163 64.4261 162.997L64.2727 161.003ZM60.4434 161.252C56.9378 161.252 54.4933 160.396 52.9207 158.859C51.3524 157.327 50.4814 154.952 50.4814 151.542H48.4814C48.4814 155.272 49.4374 158.252 51.5231 160.29C53.6045 162.323 56.641 163.252 60.4434 163.252V161.252ZM50.4814 151.542C50.4814 151.382 50.5247 150.884 50.6321 149.965C50.7362 149.076 50.8928 147.851 51.1025 146.289C51.5218 143.165 52.1512 138.706 52.9911 132.911L51.0117 132.625C50.1716 138.422 49.541 142.888 49.1203 146.022C48.91 147.589 48.7516 148.827 48.6457 149.733C48.5431 150.61 48.4814 151.24 48.4814 151.542H50.4814ZM52.99 132.918C54.7569 121.307 55.6474 112.094 55.6474 105.3H53.6474C53.6474 111.946 52.7739 121.045 51.0128 132.618L52.99 132.918ZM55.6474 105.3C55.6474 98.4269 54.9262 92.1268 53.4747 86.4061L51.5361 86.8979C52.9406 92.4332 53.6474 98.5651 53.6474 105.3H55.6474ZM52.1475 87.5857C57.0354 89.4595 60.2949 92.0993 62.0816 95.4397L63.8452 94.4963C61.7679 90.6127 58.0554 87.7085 52.8633 85.7182L52.1475 87.5857ZM62.0902 95.4554C64.003 98.8824 64.9874 103.156 64.9874 108.324H66.9874C66.9874 102.908 65.9558 98.2776 63.8366 94.4806L62.0902 95.4554ZM64.9874 108.324C64.9874 110.946 64.6999 114.297 64.1154 118.389L66.0953 118.671C66.6868 114.531 66.9874 111.078 66.9874 108.324H64.9874ZM66.0522 118.852C68.872 110.558 72.757 103.712 77.6893 98.2867L76.2095 96.9413C71.0618 102.604 67.0508 109.702 64.1586 118.208L66.0522 118.852ZM77.6893 98.2867C82.678 92.7991 87.0461 90.298 90.8094 90.298V88.298C86.1727 88.298 81.3007 91.3409 76.2095 96.9413L77.6893 98.2867ZM90.8094 90.298C95.2094 90.298 98.4045 91.9709 100.554 95.2909C102.752 98.686 103.921 103.906 103.921 111.096H105.921C105.921 103.754 104.739 98.075 102.233 94.204C99.6783 90.2581 95.8174 88.298 90.8094 88.298V90.298ZM105.829 111.516C108.901 104.874 112.406 99.6965 116.323 95.942L114.939 94.498C110.793 98.4715 107.158 103.878 104.014 110.676L105.829 111.516ZM116.324 95.9417C120.363 92.0674 123.947 90.298 127.097 90.298V88.298C123.192 88.298 119.132 90.4766 114.939 94.4983L116.324 95.9417ZM127.097 90.298C132.022 90.298 135.255 91.7816 137.105 94.5199L138.762 93.4001C136.412 89.9224 132.42 88.298 127.097 88.298V90.298ZM137.112 94.5304C139.055 97.3283 140.083 101.26 140.083 106.434H142.083C142.083 101.024 141.012 96.6397 138.755 93.3896L137.112 94.5304ZM140.083 106.434C140.083 111.554 139.256 118.836 137.579 128.31L139.548 128.658C141.231 119.148 142.083 111.73 142.083 106.434H140.083ZM137.577 128.318C135.98 137.816 135.169 144.816 135.169 149.274H137.169C137.169 144.996 137.955 138.136 139.55 128.65L137.577 128.318ZM135.169 149.274C135.169 153.603 135.714 156.959 136.928 159.2L138.687 158.248C137.716 156.457 137.169 153.513 137.169 149.274H135.169ZM136.937 159.216C138.146 161.356 140.157 163.153 142.871 164.641L143.832 162.887C141.338 161.519 139.652 159.956 138.678 158.232L136.937 159.216ZM143.275 162.767C142.221 162.848 140.697 162.89 138.689 162.89V164.89C140.714 164.89 142.298 164.848 143.428 164.761L143.275 162.767ZM138.689 162.89C133.419 162.89 129.707 161.815 127.362 159.848L126.077 161.38C128.94 163.781 133.207 164.89 138.689 164.89V162.89ZM127.388 159.871C125.176 157.879 123.939 154.404 123.939 149.148H121.939C121.939 154.644 123.223 158.813 126.05 161.357L127.388 159.871ZM123.939 149.148C123.939 146.144 124.761 139.974 126.444 130.55L124.475 130.198C122.798 139.59 121.939 145.936 121.939 149.148H123.939ZM126.444 130.548C128.125 121.049 128.979 114.004 128.979 109.458H126.979C126.979 113.816 126.153 120.715 124.475 130.2L126.444 130.548ZM128.979 109.458C128.979 106.601 128.487 104.28 127.351 102.649C126.169 100.953 124.388 100.142 122.183 100.142V102.142C123.843 102.142 124.96 102.717 125.71 103.793C126.506 104.934 126.979 106.771 126.979 109.458H128.979ZM122.183 100.142C119.634 100.142 117.048 101.51 114.445 103.939L115.81 105.401C118.247 103.126 120.365 102.142 122.183 102.142V100.142ZM114.445 103.939C111.829 106.38 109.376 109.663 107.074 113.756L108.817 114.736C111.051 110.765 113.385 107.664 115.81 105.401L114.445 103.939ZM188.022 100.26L188.729 100.967L188.729 100.967L188.022 100.26ZM173.028 102.276V101.276H172.17L172.04 102.124L173.028 102.276ZM170.382 117.9L171.366 118.08L171.368 118.071L170.382 117.9ZM167.862 169.182L167.517 170.12L169.756 170.945L168.774 168.77L167.862 169.182ZM157.656 161.244L156.783 161.731L156.788 161.74L157.656 161.244ZM155.514 133.65L154.525 133.506L154.524 133.514L154.523 133.521L155.514 133.65ZM160.806 102.78L161.797 102.915L161.976 101.606L160.667 101.79L160.806 102.78ZM146.694 106.812L145.702 106.936L145.868 108.264L147.094 107.729L146.694 106.812ZM150.474 95.094L150.922 95.9884L150.933 95.9829L150.943 95.9771L150.474 95.094ZM162.066 92.952V93.952H162.976L163.062 93.0462L162.066 92.952ZM162.822 71.658H161.822V71.6807L161.823 71.7034L162.822 71.658ZM162.822 67.5L162.973 66.5114L161.822 66.3363V67.5H162.822ZM171.768 72.666L170.963 73.2584L170.967 73.2641L170.971 73.2699L171.768 72.666ZM174.288 93.33L173.295 93.2145L173.165 94.33H174.288V93.33ZM189.786 89.676L190.776 89.5346L190.528 87.7947L189.159 88.8972L189.786 89.676ZM189.038 92.952C189.038 96.4192 188.365 98.5034 187.315 99.5529L188.729 100.967C190.368 99.3286 191.038 96.5408 191.038 92.952H189.038ZM187.315 99.5529C186.219 100.649 184.54 101.276 182.1 101.276V103.276C184.869 103.276 187.137 102.559 188.729 100.967L187.315 99.5529ZM182.1 101.276H173.028V103.276H182.1V101.276ZM172.04 102.124C171.706 104.296 170.826 109.494 169.397 117.729L171.368 118.071C172.795 109.842 173.679 104.624 174.017 102.428L172.04 102.124ZM169.399 117.72C166.54 133.357 165.098 145.232 165.098 153.306H167.098C167.098 145.42 168.512 133.691 171.366 118.08L169.399 117.72ZM165.098 153.306C165.098 157.317 165.246 160.675 165.545 163.37C165.843 166.047 166.297 168.146 166.951 169.594L168.774 168.77C168.251 167.614 167.824 165.765 167.533 163.15C167.245 160.553 167.098 157.275 167.098 153.306H165.098ZM168.208 168.244C163.583 166.54 160.396 164.024 158.525 160.748L156.788 161.74C158.948 165.52 162.566 168.296 167.517 170.12L168.208 168.244ZM158.53 160.757C156.614 157.325 155.632 153.134 155.632 148.14H153.632C153.632 153.394 154.666 157.939 156.783 161.731L158.53 160.757ZM155.632 148.14C155.632 143.054 155.924 138.267 156.506 133.779L154.523 133.521C153.928 138.105 153.632 142.978 153.632 148.14H155.632ZM156.504 133.794C157.173 129.193 158.094 123.832 159.268 117.71L157.304 117.334C156.126 123.476 155.199 128.867 154.525 133.506L156.504 133.794ZM159.268 117.71C160.446 111.571 161.29 106.637 161.797 102.915L159.816 102.645C159.315 106.315 158.479 111.209 157.304 117.334L159.268 117.71ZM160.667 101.79C155.786 102.475 150.994 103.845 146.294 105.895L147.094 107.729C151.635 105.747 156.251 104.429 160.945 103.77L160.667 101.79ZM147.687 106.688C147.523 105.376 147.442 104.2 147.442 103.158H145.442C145.442 104.3 145.53 105.56 145.702 106.936L147.687 106.688ZM147.442 103.158C147.442 99.3538 148.689 97.1047 150.922 95.9884L150.027 94.1996C146.884 95.7713 145.442 98.8982 145.442 103.158H147.442ZM150.943 95.9771C153.422 94.6606 157.095 93.952 162.066 93.952V91.952C156.958 91.952 152.903 92.6714 150.005 94.2109L150.943 95.9771ZM163.062 93.0462C163.65 86.8244 163.948 82.1655 163.948 79.092H161.948C161.948 82.0665 161.658 86.6476 161.071 92.8578L163.062 93.0462ZM163.948 79.092C163.948 75.9775 163.906 73.4824 163.821 71.6126L161.823 71.7034C161.906 73.5296 161.948 75.9905 161.948 79.092H163.948ZM163.822 71.658C163.822 71.6544 163.822 71.6508 163.822 71.6472C163.822 71.6436 163.822 71.64 163.822 71.6364C163.822 71.6328 163.822 71.6292 163.822 71.6256C163.822 71.622 163.822 71.6184 163.822 71.6148C163.822 71.6112 163.822 71.6076 163.822 71.604C163.822 71.6004 163.822 71.5968 163.822 71.5932C163.822 71.5896 163.822 71.586 163.822 71.5825C163.822 71.5789 163.822 71.5753 163.822 71.5717C163.822 71.5681 163.822 71.5646 163.822 71.561C163.822 71.5574 163.822 71.5538 163.822 71.5502C163.822 71.5467 163.822 71.5431 163.822 71.5395C163.822 71.536 163.822 71.5324 163.822 71.5288C163.822 71.5253 163.822 71.5217 163.822 71.5181C163.822 71.5146 163.822 71.511 163.822 71.5074C163.822 71.5039 163.822 71.5003 163.822 71.4968C163.822 71.4932 163.822 71.4897 163.822 71.4861C163.822 71.4825 163.822 71.479 163.822 71.4754C163.822 71.4719 163.822 71.4684 163.822 71.4648C163.822 71.4613 163.822 71.4577 163.822 71.4542C163.822 71.4506 163.822 71.4471 163.822 71.4436C163.822 71.44 163.822 71.4365 163.822 71.4329C163.822 71.4294 163.822 71.4259 163.822 71.4223C163.822 71.4188 163.822 71.4153 163.822 71.4117C163.822 71.4082 163.822 71.4047 163.822 71.4012C163.822 71.3976 163.822 71.3941 163.822 71.3906C163.822 71.3871 163.822 71.3836 163.822 71.38C163.822 71.3765 163.822 71.373 163.822 71.3695C163.822 71.366 163.822 71.3625 163.822 71.359C163.822 71.3554 163.822 71.3519 163.822 71.3484C163.822 71.3449 163.822 71.3414 163.822 71.3379C163.822 71.3344 163.822 71.3309 163.822 71.3274C163.822 71.3239 163.822 71.3204 163.822 71.3169C163.822 71.3134 163.822 71.3099 163.822 71.3064C163.822 71.3029 163.822 71.2994 163.822 71.296C163.822 71.2925 163.822 71.289 163.822 71.2855C163.822 71.282 163.822 71.2785 163.822 71.275C163.822 71.2716 163.822 71.2681 163.822 71.2646C163.822 71.2611 163.822 71.2576 163.822 71.2542C163.822 71.2507 163.822 71.2472 163.822 71.2437C163.822 71.2403 163.822 71.2368 163.822 71.2333C163.822 71.2299 163.822 71.2264 163.822 71.2229C163.822 71.2195 163.822 71.216 163.822 71.2125C163.822 71.2091 163.822 71.2056 163.822 71.2022C163.822 71.1987 163.822 71.1953 163.822 71.1918C163.822 71.1883 163.822 71.1849 163.822 71.1814C163.822 71.178 163.822 71.1745 163.822 71.1711C163.822 71.1676 163.822 71.1642 163.822 71.1608C163.822 71.1573 163.822 71.1539 163.822 71.1504C163.822 71.147 163.822 71.1436 163.822 71.1401C163.822 71.1367 163.822 71.1332 163.822 71.1298C163.822 71.1264 163.822 71.1229 163.822 71.1195C163.822 71.1161 163.822 71.1127 163.822 71.1092C163.822 71.1058 163.822 71.1024 163.822 71.099C163.822 71.0955 163.822 71.0921 163.822 71.0887C163.822 71.0853 163.822 71.0819 163.822 71.0784C163.822 71.075 163.822 71.0716 163.822 71.0682C163.822 71.0648 163.822 71.0614 163.822 71.058C163.822 71.0546 163.822 71.0512 163.822 71.0478C163.822 71.0443 163.822 71.0409 163.822 71.0375C163.822 71.0341 163.822 71.0307 163.822 71.0273C163.822 71.0239 163.822 71.0206 163.822 71.0172C163.822 71.0138 163.822 71.0104 163.822 71.007C163.822 71.0036 163.822 71.0002 163.822 70.9968C163.822 70.9934 163.822 70.99 163.822 70.9867C163.822 70.9833 163.822 70.9799 163.822 70.9765C163.822 70.9731 163.822 70.9697 163.822 70.9664C163.822 70.963 163.822 70.9596 163.822 70.9562C163.822 70.9529 163.822 70.9495 163.822 70.9461C163.822 70.9428 163.822 70.9394 163.822 70.936C163.822 70.9327 163.822 70.9293 163.822 70.9259C163.822 70.9226 163.822 70.9192 163.822 70.9159C163.822 70.9125 163.822 70.9091 163.822 70.9058C163.822 70.9024 163.822 70.8991 163.822 70.8957C163.822 70.8924 163.822 70.889 163.822 70.8857C163.822 70.8823 163.822 70.879 163.822 70.8756C163.822 70.8723 163.822 70.8689 163.822 70.8656C163.822 70.8623 163.822 70.8589 163.822 70.8556C163.822 70.8522 163.822 70.8489 163.822 70.8456C163.822 70.8422 163.822 70.8389 163.822 70.8356C163.822 70.8322 163.822 70.8289 163.822 70.8256C163.822 70.8223 163.822 70.8189 163.822 70.8156C163.822 70.8123 163.822 70.809 163.822 70.8056C163.822 70.8023 163.822 70.799 163.822 70.7957C163.822 70.7924 163.822 70.7891 163.822 70.7857C163.822 70.7824 163.822 70.7791 163.822 70.7758C163.822 70.7725 163.822 70.7692 163.822 70.7659C163.822 70.7626 163.822 70.7593 163.822 70.756C163.822 70.7527 163.822 70.7494 163.822 70.7461C163.822 70.7428 163.822 70.7395 163.822 70.7362C163.822 70.7329 163.822 70.7296 163.822 70.7263C163.822 70.723 163.822 70.7197 163.822 70.7164C163.822 70.7131 163.822 70.7098 163.822 70.7066C163.822 70.7033 163.822 70.7 163.822 70.6967C163.822 70.6934 163.822 70.6901 163.822 70.6869C163.822 70.6836 163.822 70.6803 163.822 70.677C163.822 70.6738 163.822 70.6705 163.822 70.6672C163.822 70.664 163.822 70.6607 163.822 70.6574C163.822 70.6541 163.822 70.6509 163.822 70.6476C163.822 70.6444 163.822 70.6411 163.822 70.6378C163.822 70.6346 163.822 70.6313 163.822 70.6281C163.822 70.6248 163.822 70.6215 163.822 70.6183C163.822 70.615 163.822 70.6118 163.822 70.6085C163.822 70.6053 163.822 70.602 163.822 70.5988C163.822 70.5955 163.822 70.5923 163.822 70.5891C163.822 70.5858 163.822 70.5826 163.822 70.5793C163.822 70.5761 163.822 70.5729 163.822 70.5696C163.822 70.5664 163.822 70.5632 163.822 70.5599C163.822 70.5567 163.822 70.5535 163.822 70.5502C163.822 70.547 163.822 70.5438 163.822 70.5405C163.822 70.5373 163.822 70.5341 163.822 70.5309C163.822 70.5277 163.822 70.5244 163.822 70.5212C163.822 70.518 163.822 70.5148 163.822 70.5116C163.822 70.5084 163.822 70.5051 163.822 70.5019C163.822 70.4987 163.822 70.4955 163.822 70.4923C163.822 70.4891 163.822 70.4859 163.822 70.4827C163.822 70.4795 163.822 70.4763 163.822 70.4731C163.822 70.4699 163.822 70.4667 163.822 70.4635C163.822 70.4603 163.822 70.4571 163.822 70.4539C163.822 70.4507 163.822 70.4475 163.822 70.4443C163.822 70.4411 163.822 70.4379 163.822 70.4348C163.822 70.4316 163.822 70.4284 163.822 70.4252C163.822 70.422 163.822 70.4188 163.822 70.4157C163.822 70.4125 163.822 70.4093 163.822 70.4061C163.822 70.403 163.822 70.3998 163.822 70.3966C163.822 70.3934 163.822 70.3903 163.822 70.3871C163.822 70.3839 163.822 70.3808 163.822 70.3776C163.822 70.3744 163.822 70.3713 163.822 70.3681C163.822 70.3649 163.822 70.3618 163.822 70.3586C163.822 70.3555 163.822 70.3523 163.822 70.3492C163.822 70.346 163.822 70.3428 163.822 70.3397C163.822 70.3365 163.822 70.3334 163.822 70.3302C163.822 70.3271 163.822 70.324 163.822 70.3208C163.822 70.3177 163.822 70.3145 163.822 70.3114C163.822 70.3082 163.822 70.3051 163.822 70.302C163.822 70.2988 163.822 70.2957 163.822 70.2926C163.822 70.2894 163.822 70.2863 163.822 70.2832C163.822 70.28 163.822 70.2769 163.822 70.2738C163.822 70.2707 163.822 70.2675 163.822 70.2644C163.822 70.2613 163.822 70.2582 163.822 70.255C163.822 70.2519 163.822 70.2488 163.822 70.2457C163.822 70.2426 163.822 70.2395 163.822 70.2363C163.822 70.2332 163.822 70.2301 163.822 70.227C163.822 70.2239 163.822 70.2208 163.822 70.2177C163.822 70.2146 163.822 70.2115 163.822 70.2084C163.822 70.2053 163.822 70.2022 163.822 70.1991C163.822 70.196 163.822 70.1929 163.822 70.1898C163.822 70.1867 163.822 70.1836 163.822 70.1805C163.822 70.1774 163.822 70.1743 163.822 70.1712C163.822 70.1682 163.822 70.1651 163.822 70.162C163.822 70.1589 163.822 70.1558 163.822 70.1527C163.822 70.1497 163.822 70.1466 163.822 70.1435C163.822 70.1404 163.822 70.1374 163.822 70.1343C163.822 70.1312 163.822 70.1281 163.822 70.1251C163.822 70.122 163.822 70.1189 163.822 70.1159C163.822 70.1128 163.822 70.1097 163.822 70.1067C163.822 70.1036 163.822 70.1005 163.822 70.0975C163.822 70.0944 163.822 70.0914 163.822 70.0883C163.822 70.0852 163.822 70.0822 163.822 70.0791C163.822 70.0761 163.822 70.073 163.822 70.07C163.822 70.0669 163.822 70.0639 163.822 70.0608C163.822 70.0578 163.822 70.0548 163.822 70.0517C163.822 70.0487 163.822 70.0456 163.822 70.0426C163.822 70.0396 163.822 70.0365 163.822 70.0335C163.822 70.0305 163.822 70.0274 163.822 70.0244C163.822 70.0214 163.822 70.0183 163.822 70.0153C163.822 70.0123 163.822 70.0092 163.822 70.0062C163.822 70.0032 163.822 70.0002 163.822 69.9972C163.822 69.9941 163.822 69.9911 163.822 69.9881C163.822 69.9851 163.822 69.9821 163.822 69.9791C163.822 69.976 163.822 69.973 163.822 69.97C163.822 69.967 163.822 69.964 163.822 69.961C163.822 69.958 163.822 69.955 163.822 69.952C163.822 69.949 163.822 69.946 163.822 69.943C163.822 69.94 163.822 69.937 163.822 69.934C163.822 69.931 163.822 69.928 163.822 69.925C163.822 69.922 163.822 69.919 163.822 69.916C163.822 69.913 163.822 69.91 163.822 69.9071C163.822 69.9041 163.822 69.9011 163.822 69.8981C163.822 69.8951 163.822 69.8921 163.822 69.8892C163.822 69.8862 163.822 69.8832 163.822 69.8802C163.822 69.8773 163.822 69.8743 163.822 69.8713C163.822 69.8683 163.822 69.8654 163.822 69.8624C163.822 69.8594 163.822 69.8565 163.822 69.8535C163.822 69.8505 163.822 69.8476 163.822 69.8446C163.822 69.8417 163.822 69.8387 163.822 69.8357C163.822 69.8328 163.822 69.8298 163.822 69.8269C163.822 69.8239 163.822 69.821 163.822 69.818C163.822 69.8151 163.822 69.8121 163.822 69.8092C163.822 69.8062 163.822 69.8033 163.822 69.8003C163.822 69.7974 163.822 69.7945 163.822 69.7915C163.822 69.7886 163.822 69.7856 163.822 69.7827C163.822 69.7798 163.822 69.7768 163.822 69.7739C163.822 69.771 163.822 69.768 163.822 69.7651C163.822 69.7622 163.822 69.7593 163.822 69.7563C163.822 69.7534 163.822 69.7505 163.822 69.7476C163.822 69.7446 163.822 69.7417 163.822 69.7388C163.822 69.7359 163.822 69.733 163.822 69.73C163.822 69.7271 163.822 69.7242 163.822 69.7213C163.822 69.7184 163.822 69.7155 163.822 69.7126C163.822 69.7097 163.822 69.7068 163.822 69.7039C163.822 69.701 163.822 69.6981 163.822 69.6952C163.822 69.6923 163.822 69.6894 163.822 69.6865C163.822 69.6836 163.822 69.6807 163.822 69.6778C163.822 69.6749 163.822 69.672 163.822 69.6691C163.822 69.6662 163.822 69.6633 163.822 69.6604C163.822 69.6575 163.822 69.6547 163.822 69.6518C163.822 69.6489 163.822 69.646 163.822 69.6431C163.822 69.6402 163.822 69.6374 163.822 69.6345C163.822 69.6316 163.822 69.6287 163.822 69.6259C163.822 69.623 163.822 69.6201 163.822 69.6173C163.822 69.6144 163.822 69.6115 163.822 69.6087C163.822 69.6058 163.822 69.6029 163.822 69.6001C163.822 69.5972 163.822 69.5943 163.822 69.5915C163.822 69.5886 163.822 69.5858 163.822 69.5829C163.822 69.5801 163.822 69.5772 163.822 69.5743C163.822 69.5715 163.822 69.5686 163.822 69.5658C163.822 69.563 163.822 69.5601 163.822 69.5573C163.822 69.5544 163.822 69.5516 163.822 69.5487C163.822 69.5459 163.822 69.5431 163.822 69.5402C163.822 69.5374 163.822 69.5345 163.822 69.5317C163.822 69.5289 163.822 69.526 163.822 69.5232C163.822 69.5204 163.822 69.5176 163.822 69.5147C163.822 69.5119 163.822 69.5091 163.822 69.5063C163.822 69.5034 163.822 69.5006 163.822 69.4978C163.822 69.495 163.822 69.4921 163.822 69.4893C163.822 69.4865 163.822 69.4837 163.822 69.4809C163.822 69.4781 163.822 69.4753 163.822 69.4725C163.822 69.4696 163.822 69.4668 163.822 69.464C163.822 69.4612 163.822 69.4584 163.822 69.4556C163.822 69.4528 163.822 69.45 163.822 69.4472C163.822 69.4444 163.822 69.4416 163.822 69.4388C163.822 69.436 163.822 69.4332 163.822 69.4304C163.822 69.4277 163.822 69.4249 163.822 69.4221C163.822 69.4193 163.822 69.4165 163.822 69.4137C163.822 69.4109 163.822 69.4082 163.822 69.4054C163.822 69.4026 163.822 69.3998 163.822 69.397C163.822 69.3943 163.822 69.3915 163.822 69.3887C163.822 69.3859 163.822 69.3832 163.822 69.3804C163.822 69.3776 163.822 69.3749 163.822 69.3721C163.822 69.3693 163.822 69.3666 163.822 69.3638C163.822 69.361 163.822 69.3583 163.822 69.3555C163.822 69.3527 163.822 69.35 163.822 69.3472C163.822 69.3445 163.822 69.3417 163.822 69.339C163.822 69.3362 163.822 69.3335 163.822 69.3307C163.822 69.328 163.822 69.3252 163.822 69.3225C163.822 69.3197 163.822 69.317 163.822 69.3142C163.822 69.3115 163.822 69.3088 163.822 69.306C163.822 69.3033 163.822 69.3005 163.822 69.2978C163.822 69.2951 163.822 69.2923 163.822 69.2896C163.822 69.2869 163.822 69.2841 163.822 69.2814C163.822 69.2787 163.822 69.276 163.822 69.2732C163.822 69.2705 163.822 69.2678 163.822 69.2651C163.822 69.2623 163.822 69.2596 163.822 69.2569C163.822 69.2542 163.822 69.2515 163.822 69.2488C163.822 69.246 163.822 69.2433 163.822 69.2406C163.822 69.2379 163.822 69.2352 163.822 69.2325C163.822 69.2298 163.822 69.2271 163.822 69.2244C163.822 69.2217 163.822 69.219 163.822 69.2163C163.822 69.2136 163.822 69.2109 163.822 69.2082C163.822 69.2055 163.822 69.2028 163.822 69.2001C163.822 69.1974 163.822 69.1947 163.822 69.192C163.822 69.1893 163.822 69.1866 163.822 69.184C163.822 69.1813 163.822 69.1786 163.822 69.1759C163.822 69.1732 163.822 69.1705 163.822 69.1679C163.822 69.1652 163.822 69.1625 163.822 69.1598C163.822 69.1572 163.822 69.1545 163.822 69.1518C163.822 69.1491 163.822 69.1465 163.822 69.1438C163.822 69.1411 163.822 69.1385 163.822 69.1358C163.822 69.1331 163.822 69.1305 163.822 69.1278C163.822 69.1252 163.822 69.1225 163.822 69.1198C163.822 69.1172 163.822 69.1145 163.822 69.1119C163.822 69.1092 163.822 69.1066 163.822 69.1039C163.822 69.1013 163.822 69.0986 163.822 69.096C163.822 69.0933 163.822 69.0907 163.822 69.088C163.822 69.0854 163.822 69.0827 163.822 69.0801C163.822 69.0775 163.822 69.0748 163.822 69.0722C163.822 69.0696 163.822 69.0669 163.822 69.0643C163.822 69.0617 163.822 69.059 163.822 69.0564C163.822 69.0538 163.822 69.0511 163.822 69.0485C163.822 69.0459 163.822 69.0433 163.822 69.0406C163.822 69.038 163.822 69.0354 163.822 69.0328C163.822 69.0302 163.822 69.0275 163.822 69.0249C163.822 69.0223 163.822 69.0197 163.822 69.0171C163.822 69.0145 163.822 69.0119 163.822 69.0093C163.822 69.0066 163.822 69.004 163.822 69.0014C163.822 68.9988 163.822 68.9962 163.822 68.9936C163.822 68.991 163.822 68.9884 163.822 68.9858C163.822 68.9832 163.822 68.9806 163.822 68.978C163.822 68.9754 163.822 68.9728 163.822 68.9703C163.822 68.9677 163.822 68.9651 163.822 68.9625C163.822 68.9599 163.822 68.9573 163.822 68.9547C163.822 68.9522 163.822 68.9496 163.822 68.947C163.822 68.9444 163.822 68.9418 163.822 68.9393C163.822 68.9367 163.822 68.9341 163.822 68.9315C163.822 68.929 163.822 68.9264 163.822 68.9238C163.822 68.9212 163.822 68.9187 163.822 68.9161C163.822 68.9135 163.822 68.911 163.822 68.9084C163.822 68.9059 163.822 68.9033 163.822 68.9007C163.822 68.8982 163.822 68.8956 163.822 68.8931C163.822 68.8905 163.822 68.888 163.822 68.8854C163.822 68.8829 163.822 68.8803 163.822 68.8778C163.822 68.8752 163.822 68.8727 163.822 68.8701C163.822 68.8676 163.822 68.865 163.822 68.8625C163.822 68.8599 163.822 68.8574 163.822 68.8549C163.822 68.8523 163.822 68.8498 163.822 68.8473C163.822 68.8447 163.822 68.8422 163.822 68.8397C163.822 68.8371 163.822 68.8346 163.822 68.8321C163.822 68.8295 163.822 68.827 163.822 68.8245C163.822 68.822 163.822 68.8194 163.822 68.8169C163.822 68.8144 163.822 68.8119 163.822 68.8094C163.822 68.8069 163.822 68.8043 163.822 68.8018C163.822 68.7993 163.822 68.7968 163.822 68.7943C163.822 68.7918 163.822 68.7893 163.822 68.7868C163.822 68.7843 163.822 68.7818 163.822 68.7793C163.822 68.7768 163.822 68.7743 163.822 68.7718C163.822 68.7693 163.822 68.7668 163.822 68.7643C163.822 68.7618 163.822 68.7593 163.822 68.7568C163.822 68.7543 163.822 68.7518 163.822 68.7493C163.822 68.7468 163.822 68.7443 163.822 68.7419C163.822 68.7394 163.822 68.7369 163.822 68.7344C163.822 68.7319 163.822 68.7294 163.822 68.727C163.822 68.7245 163.822 68.722 163.822 68.7195C163.822 68.7171 163.822 68.7146 163.822 68.7121C163.822 68.7096 163.822 68.7072 163.822 68.7047C163.822 68.7022 163.822 68.6998 163.822 68.6973C163.822 68.6948 163.822 68.6924 163.822 68.6899C163.822 68.6875 163.822 68.685 163.822 68.6826C163.822 68.6801 163.822 68.6776 163.822 68.6752C163.822 68.6727 163.822 68.6703 163.822 68.6678C163.822 68.6654 163.822 68.6629 163.822 68.6605C163.822 68.658 163.822 68.6556 163.822 68.6532C163.822 68.6507 163.822 68.6483 163.822 68.6458C163.822 68.6434 163.822 68.641 163.822 68.6385C163.822 68.6361 163.822 68.6336 163.822 68.6312C163.822 68.6288 163.822 68.6264 163.822 68.6239C163.822 68.6215 163.822 68.6191 163.822 68.6166C163.822 68.6142 163.822 68.6118 163.822 68.6094C163.822 68.607 163.822 68.6045 163.822 68.6021C163.822 68.5997 163.822 68.5973 163.822 68.5949C163.822 68.5925 163.822 68.59 163.822 68.5876C163.822 68.5852 163.822 68.5828 163.822 68.5804C163.822 68.578 163.822 68.5756 163.822 68.5732C163.822 68.5708 163.822 68.5684 163.822 68.566C163.822 68.5636 163.822 68.5612 163.822 68.5588C163.822 68.5564 163.822 68.554 163.822 68.5516C163.822 68.5492 163.822 68.5468 163.822 68.5444C163.822 68.542 163.822 68.5396 163.822 68.5373C163.822 68.5349 163.822 68.5325 163.822 68.5301C163.822 68.5277 163.822 68.5253 163.822 68.523C163.822 68.5206 163.822 68.5182 163.822 68.5158C163.822 68.5135 163.822 68.5111 163.822 68.5087C163.822 68.5063 163.822 68.504 163.822 68.5016C163.822 68.4992 163.822 68.4969 163.822 68.4945C163.822 68.4921 163.822 68.4898 163.822 68.4874C163.822 68.485 163.822 68.4827 163.822 68.4803C163.822 68.478 163.822 68.4756 163.822 68.4733C163.822 68.4709 163.822 68.4686 163.822 68.4662C163.822 68.4638 163.822 68.4615 163.822 68.4592C163.822 68.4568 163.822 68.4545 163.822 68.4521C163.822 68.4498 163.822 68.4474 163.822 68.4451C163.822 68.4427 163.822 68.4404 163.822 68.4381C163.822 68.4357 163.822 68.4334 163.822 68.4311C163.822 68.4287 163.822 68.4264 163.822 68.4241C163.822 68.4217 163.822 68.4194 163.822 68.4171C163.822 68.4148 163.822 68.4124 163.822 68.4101C163.822 68.4078 163.822 68.4055 163.822 68.4031C163.822 68.4008 163.822 68.3985 163.822 68.3962C163.822 68.3939 163.822 68.3916 163.822 68.3893C163.822 68.3869 163.822 68.3846 163.822 68.3823C163.822 68.38 163.822 68.3777 163.822 68.3754C163.822 68.3731 163.822 68.3708 163.822 68.3685C163.822 68.3662 163.822 68.3639 163.822 68.3616C163.822 68.3593 163.822 68.357 163.822 68.3547C163.822 68.3524 163.822 68.3501 163.822 68.3478C163.822 68.3455 163.822 68.3432 163.822 68.341C163.822 68.3387 163.822 68.3364 163.822 68.3341C163.822 68.3318 163.822 68.3295 163.822 68.3273C163.822 68.325 163.822 68.3227 163.822 68.3204C163.822 68.3181 163.822 68.3159 163.822 68.3136C163.822 68.3113 163.822 68.309 163.822 68.3068C163.822 68.3045 163.822 68.3022 163.822 68.3C163.822 68.2977 163.822 68.2954 163.822 68.2932C163.822 68.2909 163.822 68.2887 163.822 68.2864C163.822 68.2841 163.822 68.2819 163.822 68.2796C163.822 68.2774 163.822 68.2751 163.822 68.2729C163.822 68.2706 163.822 68.2684 163.822 68.2661C163.822 68.2639 163.822 68.2616 163.822 68.2594C163.822 68.2571 163.822 68.2549 163.822 68.2526C163.822 68.2504 163.822 68.2482 163.822 68.2459C163.822 68.2437 163.822 68.2414 163.822 68.2392C163.822 68.237 163.822 68.2347 163.822 68.2325C163.822 68.2303 163.822 68.228 163.822 68.2258C163.822 68.2236 163.822 68.2214 163.822 68.2191C163.822 68.2169 163.822 68.2147 163.822 68.2125C163.822 68.2103 163.822 68.208 163.822 68.2058C163.822 68.2036 163.822 68.2014 163.822 68.1992C163.822 68.197 163.822 68.1947 163.822 68.1925C163.822 68.1903 163.822 68.1881 163.822 68.1859C163.822 68.1837 163.822 68.1815 163.822 68.1793C163.822 68.1771 163.822 68.1749 163.822 68.1727C163.822 68.1705 163.822 68.1683 163.822 68.1661C163.822 68.1639 163.822 68.1617 163.822 68.1595C163.822 68.1573 163.822 68.1551 163.822 68.1529C163.822 68.1508 163.822 68.1486 163.822 68.1464C163.822 68.1442 163.822 68.142 163.822 68.1398C163.822 68.1376 163.822 68.1355 163.822 68.1333C163.822 68.1311 163.822 68.1289 163.822 68.1268C163.822 68.1246 163.822 68.1224 163.822 68.1202C163.822 68.1181 163.822 68.1159 163.822 68.1137C163.822 68.1116 163.822 68.1094 163.822 68.1072C163.822 68.1051 163.822 68.1029 163.822 68.1007C163.822 68.0986 163.822 68.0964 163.822 68.0943C163.822 68.0921 163.822 68.09 163.822 68.0878C163.822 68.0857 163.822 68.0835 163.822 68.0814C163.822 68.0792 163.822 68.0771 163.822 68.0749C163.822 68.0728 163.822 68.0706 163.822 68.0685C163.822 68.0663 163.822 68.0642 163.822 68.062C163.822 68.0599 163.822 68.0578 163.822 68.0556C163.822 68.0535 163.822 68.0514 163.822 68.0492C163.822 68.0471 163.822 68.045 163.822 68.0428C163.822 68.0407 163.822 68.0386 163.822 68.0365C163.822 68.0343 163.822 68.0322 163.822 68.0301C163.822 68.028 163.822 68.0258 163.822 68.0237C163.822 68.0216 163.822 68.0195 163.822 68.0174C163.822 68.0153 163.822 68.0131 163.822 68.011C163.822 68.0089 163.822 68.0068 163.822 68.0047C163.822 68.0026 163.822 68.0005 163.822 67.9984C163.822 67.9963 163.822 67.9942 163.822 67.9921C163.822 67.99 163.822 67.9879 163.822 67.9858C163.822 67.9837 163.822 67.9816 163.822 67.9795C163.822 67.9774 163.822 67.9753 163.822 67.9732C163.822 67.9711 163.822 67.969 163.822 67.967C163.822 67.9649 163.822 67.9628 163.822 67.9607C163.822 67.9586 163.822 67.9565 163.822 67.9545C163.822 67.9524 163.822 67.9503 163.822 67.9482C163.822 67.9461 163.822 67.9441 163.822 67.942C163.822 67.9399 163.822 67.9379 163.822 67.9358C163.822 67.9337 163.822 67.9317 163.822 67.9296C163.822 67.9275 163.822 67.9255 163.822 67.9234C163.822 67.9213 163.822 67.9193 163.822 67.9172C163.822 67.9152 163.822 67.9131 163.822 67.911C163.822 67.909 163.822 67.9069 163.822 67.9049C163.822 67.9028 163.822 67.9008 163.822 67.8987C163.822 67.8967 163.822 67.8946 163.822 67.8926C163.822 67.8906 163.822 67.8885 163.822 67.8865C163.822 67.8844 163.822 67.8824 163.822 67.8804C163.822 67.8783 163.822 67.8763 163.822 67.8742C163.822 67.8722 163.822 67.8702 163.822 67.8681C163.822 67.8661 163.822 67.8641 163.822 67.8621C163.822 67.86 163.822 67.858 163.822 67.856C163.822 67.854 163.822 67.8519 163.822 67.8499C163.822 67.8479 163.822 67.8459 163.822 67.8439C163.822 67.8419 163.822 67.8398 163.822 67.8378C163.822 67.8358 163.822 67.8338 163.822 67.8318C163.822 67.8298 163.822 67.8278 163.822 67.8258C163.822 67.8238 163.822 67.8218 163.822 67.8198C163.822 67.8178 163.822 67.8158 163.822 67.8138C163.822 67.8118 163.822 67.8098 163.822 67.8078C163.822 67.8058 163.822 67.8038 163.822 67.8018C163.822 67.7998 163.822 67.7978 163.822 67.7958C163.822 67.7938 163.822 67.7918 163.822 67.7899C163.822 67.7879 163.822 67.7859 163.822 67.7839C163.822 67.7819 163.822 67.78 163.822 67.778C163.822 67.776 163.822 67.774 163.822 67.772C163.822 67.7701 163.822 67.7681 163.822 67.7661C163.822 67.7642 163.822 67.7622 163.822 67.7602C163.822 67.7583 163.822 67.7563 163.822 67.7543C163.822 67.7524 163.822 67.7504 163.822 67.7484C163.822 67.7465 163.822 67.7445 163.822 67.7426C163.822 67.7406 163.822 67.7387 163.822 67.7367C163.822 67.7348 163.822 67.7328 163.822 67.7309C163.822 67.7289 163.822 67.727 163.822 67.725C163.822 67.7231 163.822 67.7211 163.822 67.7192C163.822 67.7172 163.822 67.7153 163.822 67.7134C163.822 67.7114 163.822 67.7095 163.822 67.7076C163.822 67.7056 163.822 67.7037 163.822 67.7018C163.822 67.6998 163.822 67.6979 163.822 67.696C163.822 67.694 163.822 67.6921 163.822 67.6902C163.822 67.6883 163.822 67.6863 163.822 67.6844C163.822 67.6825 163.822 67.6806 163.822 67.6787C163.822 67.6767 163.822 67.6748 163.822 67.6729C163.822 67.671 163.822 67.6691 163.822 67.6672C163.822 67.6653 163.822 67.6634 163.822 67.6614C163.822 67.6595 163.822 67.6576 163.822 67.6557C163.822 67.6538 163.822 67.6519 163.822 67.65C163.822 67.6481 163.822 67.6462 163.822 67.6443C163.822 67.6424 163.822 67.6405 163.822 67.6386C163.822 67.6368 163.822 67.6349 163.822 67.633C163.822 67.6311 163.822 67.6292 163.822 67.6273C163.822 67.6254 163.822 67.6235 163.822 67.6217C163.822 67.6198 163.822 67.6179 163.822 67.616C163.822 67.6141 163.822 67.6123 163.822 67.6104C163.822 67.6085 163.822 67.6066 163.822 67.6048C163.822 67.6029 163.822 67.601 163.822 67.5992C163.822 67.5973 163.822 67.5954 163.822 67.5936C163.822 67.5917 163.822 67.5898 163.822 67.588C163.822 67.5861 163.822 67.5843 163.822 67.5824C163.822 67.5805 163.822 67.5787 163.822 67.5768C163.822 67.575 163.822 67.5731 163.822 67.5713C163.822 67.5694 163.822 67.5676 163.822 67.5657C163.822 67.5639 163.822 67.562 163.822 67.5602C163.822 67.5583 163.822 67.5565 163.822 67.5547C163.822 67.5528 163.822 67.551 163.822 67.5491C163.822 67.5473 163.822 67.5455 163.822 67.5436C163.822 67.5418 163.822 67.54 163.822 67.5382C163.822 67.5363 163.822 67.5345 163.822 67.5327C163.822 67.5308 163.822 67.529 163.822 67.5272C163.822 67.5254 163.822 67.5236 163.822 67.5217C163.822 67.5199 163.822 67.5181 163.822 67.5163C163.822 67.5145 163.822 67.5127 163.822 67.5108C163.822 67.509 163.822 67.5072 163.822 67.5054C163.822 67.5036 163.822 67.5018 163.822 67.5H161.822C161.822 67.5018 161.822 67.5036 161.822 67.5054C161.822 67.5072 161.822 67.509 161.822 67.5108C161.822 67.5127 161.822 67.5145 161.822 67.5163C161.822 67.5181 161.822 67.5199 161.822 67.5217C161.822 67.5236 161.822 67.5254 161.822 67.5272C161.822 67.529 161.822 67.5308 161.822 67.5327C161.822 67.5345 161.822 67.5363 161.822 67.5382C161.822 67.54 161.822 67.5418 161.822 67.5436C161.822 67.5455 161.822 67.5473 161.822 67.5491C161.822 67.551 161.822 67.5528 161.822 67.5547C161.822 67.5565 161.822 67.5583 161.822 67.5602C161.822 67.562 161.822 67.5639 161.822 67.5657C161.822 67.5676 161.822 67.5694 161.822 67.5713C161.822 67.5731 161.822 67.575 161.822 67.5768C161.822 67.5787 161.822 67.5805 161.822 67.5824C161.822 67.5843 161.822 67.5861 161.822 67.588C161.822 67.5898 161.822 67.5917 161.822 67.5936C161.822 67.5954 161.822 67.5973 161.822 67.5992C161.822 67.601 161.822 67.6029 161.822 67.6048C161.822 67.6066 161.822 67.6085 161.822 67.6104C161.822 67.6123 161.822 67.6141 161.822 67.616C161.822 67.6179 161.822 67.6198 161.822 67.6217C161.822 67.6235 161.822 67.6254 161.822 67.6273C161.822 67.6292 161.822 67.6311 161.822 67.633C161.822 67.6349 161.822 67.6368 161.822 67.6386C161.822 67.6405 161.822 67.6424 161.822 67.6443C161.822 67.6462 161.822 67.6481 161.822 67.65C161.822 67.6519 161.822 67.6538 161.822 67.6557C161.822 67.6576 161.822 67.6595 161.822 67.6614C161.822 67.6634 161.822 67.6653 161.822 67.6672C161.822 67.6691 161.822 67.671 161.822 67.6729C161.822 67.6748 161.822 67.6767 161.822 67.6787C161.822 67.6806 161.822 67.6825 161.822 67.6844C161.822 67.6863 161.822 67.6883 161.822 67.6902C161.822 67.6921 161.822 67.694 161.822 67.696C161.822 67.6979 161.822 67.6998 161.822 67.7018C161.822 67.7037 161.822 67.7056 161.822 67.7076C161.822 67.7095 161.822 67.7114 161.822 67.7134C161.822 67.7153 161.822 67.7172 161.822 67.7192C161.822 67.7211 161.822 67.7231 161.822 67.725C161.822 67.727 161.822 67.7289 161.822 67.7309C161.822 67.7328 161.822 67.7348 161.822 67.7367C161.822 67.7387 161.822 67.7406 161.822 67.7426C161.822 67.7445 161.822 67.7465 161.822 67.7484C161.822 67.7504 161.822 67.7524 161.822 67.7543C161.822 67.7563 161.822 67.7583 161.822 67.7602C161.822 67.7622 161.822 67.7642 161.822 67.7661C161.822 67.7681 161.822 67.7701 161.822 67.772C161.822 67.774 161.822 67.776 161.822 67.778C161.822 67.78 161.822 67.7819 161.822 67.7839C161.822 67.7859 161.822 67.7879 161.822 67.7899C161.822 67.7918 161.822 67.7938 161.822 67.7958C161.822 67.7978 161.822 67.7998 161.822 67.8018C161.822 67.8038 161.822 67.8058 161.822 67.8078C161.822 67.8098 161.822 67.8118 161.822 67.8138C161.822 67.8158 161.822 67.8178 161.822 67.8198C161.822 67.8218 161.822 67.8238 161.822 67.8258C161.822 67.8278 161.822 67.8298 161.822 67.8318C161.822 67.8338 161.822 67.8358 161.822 67.8378C161.822 67.8398 161.822 67.8419 161.822 67.8439C161.822 67.8459 161.822 67.8479 161.822 67.8499C161.822 67.8519 161.822 67.854 161.822 67.856C161.822 67.858 161.822 67.86 161.822 67.8621C161.822 67.8641 161.822 67.8661 161.822 67.8681C161.822 67.8702 161.822 67.8722 161.822 67.8742C161.822 67.8763 161.822 67.8783 161.822 67.8804C161.822 67.8824 161.822 67.8844 161.822 67.8865C161.822 67.8885 161.822 67.8906 161.822 67.8926C161.822 67.8946 161.822 67.8967 161.822 67.8987C161.822 67.9008 161.822 67.9028 161.822 67.9049C161.822 67.9069 161.822 67.909 161.822 67.911C161.822 67.9131 161.822 67.9152 161.822 67.9172C161.822 67.9193 161.822 67.9213 161.822 67.9234C161.822 67.9255 161.822 67.9275 161.822 67.9296C161.822 67.9317 161.822 67.9337 161.822 67.9358C161.822 67.9379 161.822 67.9399 161.822 67.942C161.822 67.9441 161.822 67.9461 161.822 67.9482C161.822 67.9503 161.822 67.9524 161.822 67.9545C161.822 67.9565 161.822 67.9586 161.822 67.9607C161.822 67.9628 161.822 67.9649 161.822 67.967C161.822 67.969 161.822 67.9711 161.822 67.9732C161.822 67.9753 161.822 67.9774 161.822 67.9795C161.822 67.9816 161.822 67.9837 161.822 67.9858C161.822 67.9879 161.822 67.99 161.822 67.9921C161.822 67.9942 161.822 67.9963 161.822 67.9984C161.822 68.0005 161.822 68.0026 161.822 68.0047C161.822 68.0068 161.822 68.0089 161.822 68.011C161.822 68.0131 161.822 68.0153 161.822 68.0174C161.822 68.0195 161.822 68.0216 161.822 68.0237C161.822 68.0258 161.822 68.028 161.822 68.0301C161.822 68.0322 161.822 68.0343 161.822 68.0365C161.822 68.0386 161.822 68.0407 161.822 68.0428C161.822 68.045 161.822 68.0471 161.822 68.0492C161.822 68.0514 161.822 68.0535 161.822 68.0556C161.822 68.0578 161.822 68.0599 161.822 68.062C161.822 68.0642 161.822 68.0663 161.822 68.0685C161.822 68.0706 161.822 68.0728 161.822 68.0749C161.822 68.0771 161.822 68.0792 161.822 68.0814C161.822 68.0835 161.822 68.0857 161.822 68.0878C161.822 68.09 161.822 68.0921 161.822 68.0943C161.822 68.0964 161.822 68.0986 161.822 68.1007C161.822 68.1029 161.822 68.1051 161.822 68.1072C161.822 68.1094 161.822 68.1116 161.822 68.1137C161.822 68.1159 161.822 68.1181 161.822 68.1202C161.822 68.1224 161.822 68.1246 161.822 68.1268C161.822 68.1289 161.822 68.1311 161.822 68.1333C161.822 68.1355 161.822 68.1376 161.822 68.1398C161.822 68.142 161.822 68.1442 161.822 68.1464C161.822 68.1486 161.822 68.1508 161.822 68.1529C161.822 68.1551 161.822 68.1573 161.822 68.1595C161.822 68.1617 161.822 68.1639 161.822 68.1661C161.822 68.1683 161.822 68.1705 161.822 68.1727C161.822 68.1749 161.822 68.1771 161.822 68.1793C161.822 68.1815 161.822 68.1837 161.822 68.1859C161.822 68.1881 161.822 68.1903 161.822 68.1925C161.822 68.1947 161.822 68.197 161.822 68.1992C161.822 68.2014 161.822 68.2036 161.822 68.2058C161.822 68.208 161.822 68.2103 161.822 68.2125C161.822 68.2147 161.822 68.2169 161.822 68.2191C161.822 68.2214 161.822 68.2236 161.822 68.2258C161.822 68.228 161.822 68.2303 161.822 68.2325C161.822 68.2347 161.822 68.237 161.822 68.2392C161.822 68.2414 161.822 68.2437 161.822 68.2459C161.822 68.2482 161.822 68.2504 161.822 68.2526C161.822 68.2549 161.822 68.2571 161.822 68.2594C161.822 68.2616 161.822 68.2639 161.822 68.2661C161.822 68.2684 161.822 68.2706 161.822 68.2729C161.822 68.2751 161.822 68.2774 161.822 68.2796C161.822 68.2819 161.822 68.2841 161.822 68.2864C161.822 68.2887 161.822 68.2909 161.822 68.2932C161.822 68.2954 161.822 68.2977 161.822 68.3C161.822 68.3022 161.822 68.3045 161.822 68.3068C161.822 68.309 161.822 68.3113 161.822 68.3136C161.822 68.3159 161.822 68.3181 161.822 68.3204C161.822 68.3227 161.822 68.325 161.822 68.3273C161.822 68.3295 161.822 68.3318 161.822 68.3341C161.822 68.3364 161.822 68.3387 161.822 68.341C161.822 68.3432 161.822 68.3455 161.822 68.3478C161.822 68.3501 161.822 68.3524 161.822 68.3547C161.822 68.357 161.822 68.3593 161.822 68.3616C161.822 68.3639 161.822 68.3662 161.822 68.3685C161.822 68.3708 161.822 68.3731 161.822 68.3754C161.822 68.3777 161.822 68.38 161.822 68.3823C161.822 68.3846 161.822 68.3869 161.822 68.3893C161.822 68.3916 161.822 68.3939 161.822 68.3962C161.822 68.3985 161.822 68.4008 161.822 68.4031C161.822 68.4055 161.822 68.4078 161.822 68.4101C161.822 68.4124 161.822 68.4148 161.822 68.4171C161.822 68.4194 161.822 68.4217 161.822 68.4241C161.822 68.4264 161.822 68.4287 161.822 68.4311C161.822 68.4334 161.822 68.4357 161.822 68.4381C161.822 68.4404 161.822 68.4427 161.822 68.4451C161.822 68.4474 161.822 68.4498 161.822 68.4521C161.822 68.4545 161.822 68.4568 161.822 68.4592C161.822 68.4615 161.822 68.4638 161.822 68.4662C161.822 68.4686 161.822 68.4709 161.822 68.4733C161.822 68.4756 161.822 68.478 161.822 68.4803C161.822 68.4827 161.822 68.485 161.822 68.4874C161.822 68.4898 161.822 68.4921 161.822 68.4945C161.822 68.4969 161.822 68.4992 161.822 68.5016C161.822 68.504 161.822 68.5063 161.822 68.5087C161.822 68.5111 161.822 68.5135 161.822 68.5158C161.822 68.5182 161.822 68.5206 161.822 68.523C161.822 68.5253 161.822 68.5277 161.822 68.5301C161.822 68.5325 161.822 68.5349 161.822 68.5373C161.822 68.5396 161.822 68.542 161.822 68.5444C161.822 68.5468 161.822 68.5492 161.822 68.5516C161.822 68.554 161.822 68.5564 161.822 68.5588C161.822 68.5612 161.822 68.5636 161.822 68.566C161.822 68.5684 161.822 68.5708 161.822 68.5732C161.822 68.5756 161.822 68.578 161.822 68.5804C161.822 68.5828 161.822 68.5852 161.822 68.5876C161.822 68.59 161.822 68.5925 161.822 68.5949C161.822 68.5973 161.822 68.5997 161.822 68.6021C161.822 68.6045 161.822 68.607 161.822 68.6094C161.822 68.6118 161.822 68.6142 161.822 68.6166C161.822 68.6191 161.822 68.6215 161.822 68.6239C161.822 68.6264 161.822 68.6288 161.822 68.6312C161.822 68.6336 161.822 68.6361 161.822 68.6385C161.822 68.641 161.822 68.6434 161.822 68.6458C161.822 68.6483 161.822 68.6507 161.822 68.6532C161.822 68.6556 161.822 68.658 161.822 68.6605C161.822 68.6629 161.822 68.6654 161.822 68.6678C161.822 68.6703 161.822 68.6727 161.822 68.6752C161.822 68.6776 161.822 68.6801 161.822 68.6826C161.822 68.685 161.822 68.6875 161.822 68.6899C161.822 68.6924 161.822 68.6948 161.822 68.6973C161.822 68.6998 161.822 68.7022 161.822 68.7047C161.822 68.7072 161.822 68.7096 161.822 68.7121C161.822 68.7146 161.822 68.7171 161.822 68.7195C161.822 68.722 161.822 68.7245 161.822 68.727C161.822 68.7294 161.822 68.7319 161.822 68.7344C161.822 68.7369 161.822 68.7394 161.822 68.7419C161.822 68.7443 161.822 68.7468 161.822 68.7493C161.822 68.7518 161.822 68.7543 161.822 68.7568C161.822 68.7593 161.822 68.7618 161.822 68.7643C161.822 68.7668 161.822 68.7693 161.822 68.7718C161.822 68.7743 161.822 68.7768 161.822 68.7793C161.822 68.7818 161.822 68.7843 161.822 68.7868C161.822 68.7893 161.822 68.7918 161.822 68.7943C161.822 68.7968 161.822 68.7993 161.822 68.8018C161.822 68.8043 161.822 68.8069 161.822 68.8094C161.822 68.8119 161.822 68.8144 161.822 68.8169C161.822 68.8194 161.822 68.822 161.822 68.8245C161.822 68.827 161.822 68.8295 161.822 68.8321C161.822 68.8346 161.822 68.8371 161.822 68.8397C161.822 68.8422 161.822 68.8447 161.822 68.8473C161.822 68.8498 161.822 68.8523 161.822 68.8549C161.822 68.8574 161.822 68.8599 161.822 68.8625C161.822 68.865 161.822 68.8676 161.822 68.8701C161.822 68.8727 161.822 68.8752 161.822 68.8778C161.822 68.8803 161.822 68.8829 161.822 68.8854C161.822 68.888 161.822 68.8905 161.822 68.8931C161.822 68.8956 161.822 68.8982 161.822 68.9007C161.822 68.9033 161.822 68.9059 161.822 68.9084C161.822 68.911 161.822 68.9135 161.822 68.9161C161.822 68.9187 161.822 68.9212 161.822 68.9238C161.822 68.9264 161.822 68.929 161.822 68.9315C161.822 68.9341 161.822 68.9367 161.822 68.9393C161.822 68.9418 161.822 68.9444 161.822 68.947C161.822 68.9496 161.822 68.9522 161.822 68.9547C161.822 68.9573 161.822 68.9599 161.822 68.9625C161.822 68.9651 161.822 68.9677 161.822 68.9703C161.822 68.9728 161.822 68.9754 161.822 68.978C161.822 68.9806 161.822 68.9832 161.822 68.9858C161.822 68.9884 161.822 68.991 161.822 68.9936C161.822 68.9962 161.822 68.9988 161.822 69.0014C161.822 69.004 161.822 69.0066 161.822 69.0093C161.822 69.0119 161.822 69.0145 161.822 69.0171C161.822 69.0197 161.822 69.0223 161.822 69.0249C161.822 69.0275 161.822 69.0302 161.822 69.0328C161.822 69.0354 161.822 69.038 161.822 69.0406C161.822 69.0433 161.822 69.0459 161.822 69.0485C161.822 69.0511 161.822 69.0538 161.822 69.0564C161.822 69.059 161.822 69.0617 161.822 69.0643C161.822 69.0669 161.822 69.0696 161.822 69.0722C161.822 69.0748 161.822 69.0775 161.822 69.0801C161.822 69.0827 161.822 69.0854 161.822 69.088C161.822 69.0907 161.822 69.0933 161.822 69.096C161.822 69.0986 161.822 69.1013 161.822 69.1039C161.822 69.1066 161.822 69.1092 161.822 69.1119C161.822 69.1145 161.822 69.1172 161.822 69.1198C161.822 69.1225 161.822 69.1252 161.822 69.1278C161.822 69.1305 161.822 69.1331 161.822 69.1358C161.822 69.1385 161.822 69.1411 161.822 69.1438C161.822 69.1465 161.822 69.1491 161.822 69.1518C161.822 69.1545 161.822 69.1572 161.822 69.1598C161.822 69.1625 161.822 69.1652 161.822 69.1679C161.822 69.1705 161.822 69.1732 161.822 69.1759C161.822 69.1786 161.822 69.1813 161.822 69.184C161.822 69.1866 161.822 69.1893 161.822 69.192C161.822 69.1947 161.822 69.1974 161.822 69.2001C161.822 69.2028 161.822 69.2055 161.822 69.2082C161.822 69.2109 161.822 69.2136 161.822 69.2163C161.822 69.219 161.822 69.2217 161.822 69.2244C161.822 69.2271 161.822 69.2298 161.822 69.2325C161.822 69.2352 161.822 69.2379 161.822 69.2406C161.822 69.2433 161.822 69.246 161.822 69.2488C161.822 69.2515 161.822 69.2542 161.822 69.2569C161.822 69.2596 161.822 69.2623 161.822 69.2651C161.822 69.2678 161.822 69.2705 161.822 69.2732C161.822 69.276 161.822 69.2787 161.822 69.2814C161.822 69.2841 161.822 69.2869 161.822 69.2896C161.822 69.2923 161.822 69.2951 161.822 69.2978C161.822 69.3005 161.822 69.3033 161.822 69.306C161.822 69.3088 161.822 69.3115 161.822 69.3142C161.822 69.317 161.822 69.3197 161.822 69.3225C161.822 69.3252 161.822 69.328 161.822 69.3307C161.822 69.3335 161.822 69.3362 161.822 69.339C161.822 69.3417 161.822 69.3445 161.822 69.3472C161.822 69.35 161.822 69.3527 161.822 69.3555C161.822 69.3583 161.822 69.361 161.822 69.3638C161.822 69.3666 161.822 69.3693 161.822 69.3721C161.822 69.3749 161.822 69.3776 161.822 69.3804C161.822 69.3832 161.822 69.3859 161.822 69.3887C161.822 69.3915 161.822 69.3943 161.822 69.397C161.822 69.3998 161.822 69.4026 161.822 69.4054C161.822 69.4082 161.822 69.4109 161.822 69.4137C161.822 69.4165 161.822 69.4193 161.822 69.4221C161.822 69.4249 161.822 69.4277 161.822 69.4304C161.822 69.4332 161.822 69.436 161.822 69.4388C161.822 69.4416 161.822 69.4444 161.822 69.4472C161.822 69.45 161.822 69.4528 161.822 69.4556C161.822 69.4584 161.822 69.4612 161.822 69.464C161.822 69.4668 161.822 69.4696 161.822 69.4725C161.822 69.4753 161.822 69.4781 161.822 69.4809C161.822 69.4837 161.822 69.4865 161.822 69.4893C161.822 69.4921 161.822 69.495 161.822 69.4978C161.822 69.5006 161.822 69.5034 161.822 69.5063C161.822 69.5091 161.822 69.5119 161.822 69.5147C161.822 69.5176 161.822 69.5204 161.822 69.5232C161.822 69.526 161.822 69.5289 161.822 69.5317C161.822 69.5345 161.822 69.5374 161.822 69.5402C161.822 69.5431 161.822 69.5459 161.822 69.5487C161.822 69.5516 161.822 69.5544 161.822 69.5573C161.822 69.5601 161.822 69.563 161.822 69.5658C161.822 69.5686 161.822 69.5715 161.822 69.5743C161.822 69.5772 161.822 69.5801 161.822 69.5829C161.822 69.5858 161.822 69.5886 161.822 69.5915C161.822 69.5943 161.822 69.5972 161.822 69.6001C161.822 69.6029 161.822 69.6058 161.822 69.6087C161.822 69.6115 161.822 69.6144 161.822 69.6173C161.822 69.6201 161.822 69.623 161.822 69.6259C161.822 69.6287 161.822 69.6316 161.822 69.6345C161.822 69.6374 161.822 69.6402 161.822 69.6431C161.822 69.646 161.822 69.6489 161.822 69.6518C161.822 69.6547 161.822 69.6575 161.822 69.6604C161.822 69.6633 161.822 69.6662 161.822 69.6691C161.822 69.672 161.822 69.6749 161.822 69.6778C161.822 69.6807 161.822 69.6836 161.822 69.6865C161.822 69.6894 161.822 69.6923 161.822 69.6952C161.822 69.6981 161.822 69.701 161.822 69.7039C161.822 69.7068 161.822 69.7097 161.822 69.7126C161.822 69.7155 161.822 69.7184 161.822 69.7213C161.822 69.7242 161.822 69.7271 161.822 69.73C161.822 69.733 161.822 69.7359 161.822 69.7388C161.822 69.7417 161.822 69.7446 161.822 69.7476C161.822 69.7505 161.822 69.7534 161.822 69.7563C161.822 69.7593 161.822 69.7622 161.822 69.7651C161.822 69.768 161.822 69.771 161.822 69.7739C161.822 69.7768 161.822 69.7798 161.822 69.7827C161.822 69.7856 161.822 69.7886 161.822 69.7915C161.822 69.7945 161.822 69.7974 161.822 69.8003C161.822 69.8033 161.822 69.8062 161.822 69.8092C161.822 69.8121 161.822 69.8151 161.822 69.818C161.822 69.821 161.822 69.8239 161.822 69.8269C161.822 69.8298 161.822 69.8328 161.822 69.8357C161.822 69.8387 161.822 69.8417 161.822 69.8446C161.822 69.8476 161.822 69.8505 161.822 69.8535C161.822 69.8565 161.822 69.8594 161.822 69.8624C161.822 69.8654 161.822 69.8683 161.822 69.8713C161.822 69.8743 161.822 69.8773 161.822 69.8802C161.822 69.8832 161.822 69.8862 161.822 69.8892C161.822 69.8921 161.822 69.8951 161.822 69.8981C161.822 69.9011 161.822 69.9041 161.822 69.9071C161.822 69.91 161.822 69.913 161.822 69.916C161.822 69.919 161.822 69.922 161.822 69.925C161.822 69.928 161.822 69.931 161.822 69.934C161.822 69.937 161.822 69.94 161.822 69.943C161.822 69.946 161.822 69.949 161.822 69.952C161.822 69.955 161.822 69.958 161.822 69.961C161.822 69.964 161.822 69.967 161.822 69.97C161.822 69.973 161.822 69.976 161.822 69.9791C161.822 69.9821 161.822 69.9851 161.822 69.9881C161.822 69.9911 161.822 69.9941 161.822 69.9972C161.822 70.0002 161.822 70.0032 161.822 70.0062C161.822 70.0092 161.822 70.0123 161.822 70.0153C161.822 70.0183 161.822 70.0214 161.822 70.0244C161.822 70.0274 161.822 70.0305 161.822 70.0335C161.822 70.0365 161.822 70.0396 161.822 70.0426C161.822 70.0456 161.822 70.0487 161.822 70.0517C161.822 70.0548 161.822 70.0578 161.822 70.0608C161.822 70.0639 161.822 70.0669 161.822 70.07C161.822 70.073 161.822 70.0761 161.822 70.0791C161.822 70.0822 161.822 70.0852 161.822 70.0883C161.822 70.0914 161.822 70.0944 161.822 70.0975C161.822 70.1005 161.822 70.1036 161.822 70.1067C161.822 70.1097 161.822 70.1128 161.822 70.1159C161.822 70.1189 161.822 70.122 161.822 70.1251C161.822 70.1281 161.822 70.1312 161.822 70.1343C161.822 70.1374 161.822 70.1404 161.822 70.1435C161.822 70.1466 161.822 70.1497 161.822 70.1527C161.822 70.1558 161.822 70.1589 161.822 70.162C161.822 70.1651 161.822 70.1682 161.822 70.1712C161.822 70.1743 161.822 70.1774 161.822 70.1805C161.822 70.1836 161.822 70.1867 161.822 70.1898C161.822 70.1929 161.822 70.196 161.822 70.1991C161.822 70.2022 161.822 70.2053 161.822 70.2084C161.822 70.2115 161.822 70.2146 161.822 70.2177C161.822 70.2208 161.822 70.2239 161.822 70.227C161.822 70.2301 161.822 70.2332 161.822 70.2363C161.822 70.2395 161.822 70.2426 161.822 70.2457C161.822 70.2488 161.822 70.2519 161.822 70.255C161.822 70.2582 161.822 70.2613 161.822 70.2644C161.822 70.2675 161.822 70.2707 161.822 70.2738C161.822 70.2769 161.822 70.28 161.822 70.2832C161.822 70.2863 161.822 70.2894 161.822 70.2926C161.822 70.2957 161.822 70.2988 161.822 70.302C161.822 70.3051 161.822 70.3082 161.822 70.3114C161.822 70.3145 161.822 70.3177 161.822 70.3208C161.822 70.324 161.822 70.3271 161.822 70.3302C161.822 70.3334 161.822 70.3365 161.822 70.3397C161.822 70.3428 161.822 70.346 161.822 70.3492C161.822 70.3523 161.822 70.3555 161.822 70.3586C161.822 70.3618 161.822 70.3649 161.822 70.3681C161.822 70.3713 161.822 70.3744 161.822 70.3776C161.822 70.3808 161.822 70.3839 161.822 70.3871C161.822 70.3903 161.822 70.3934 161.822 70.3966C161.822 70.3998 161.822 70.403 161.822 70.4061C161.822 70.4093 161.822 70.4125 161.822 70.4157C161.822 70.4188 161.822 70.422 161.822 70.4252C161.822 70.4284 161.822 70.4316 161.822 70.4348C161.822 70.4379 161.822 70.4411 161.822 70.4443C161.822 70.4475 161.822 70.4507 161.822 70.4539C161.822 70.4571 161.822 70.4603 161.822 70.4635C161.822 70.4667 161.822 70.4699 161.822 70.4731C161.822 70.4763 161.822 70.4795 161.822 70.4827C161.822 70.4859 161.822 70.4891 161.822 70.4923C161.822 70.4955 161.822 70.4987 161.822 70.5019C161.822 70.5051 161.822 70.5084 161.822 70.5116C161.822 70.5148 161.822 70.518 161.822 70.5212C161.822 70.5244 161.822 70.5277 161.822 70.5309C161.822 70.5341 161.822 70.5373 161.822 70.5405C161.822 70.5438 161.822 70.547 161.822 70.5502C161.822 70.5535 161.822 70.5567 161.822 70.5599C161.822 70.5632 161.822 70.5664 161.822 70.5696C161.822 70.5729 161.822 70.5761 161.822 70.5793C161.822 70.5826 161.822 70.5858 161.822 70.5891C161.822 70.5923 161.822 70.5955 161.822 70.5988C161.822 70.602 161.822 70.6053 161.822 70.6085C161.822 70.6118 161.822 70.615 161.822 70.6183C161.822 70.6215 161.822 70.6248 161.822 70.6281C161.822 70.6313 161.822 70.6346 161.822 70.6378C161.822 70.6411 161.822 70.6444 161.822 70.6476C161.822 70.6509 161.822 70.6541 161.822 70.6574C161.822 70.6607 161.822 70.664 161.822 70.6672C161.822 70.6705 161.822 70.6738 161.822 70.677C161.822 70.6803 161.822 70.6836 161.822 70.6869C161.822 70.6901 161.822 70.6934 161.822 70.6967C161.822 70.7 161.822 70.7033 161.822 70.7066C161.822 70.7098 161.822 70.7131 161.822 70.7164C161.822 70.7197 161.822 70.723 161.822 70.7263C161.822 70.7296 161.822 70.7329 161.822 70.7362C161.822 70.7395 161.822 70.7428 161.822 70.7461C161.822 70.7494 161.822 70.7527 161.822 70.756C161.822 70.7593 161.822 70.7626 161.822 70.7659C161.822 70.7692 161.822 70.7725 161.822 70.7758C161.822 70.7791 161.822 70.7824 161.822 70.7857C161.822 70.7891 161.822 70.7924 161.822 70.7957C161.822 70.799 161.822 70.8023 161.822 70.8056C161.822 70.809 161.822 70.8123 161.822 70.8156C161.822 70.8189 161.822 70.8223 161.822 70.8256C161.822 70.8289 161.822 70.8322 161.822 70.8356C161.822 70.8389 161.822 70.8422 161.822 70.8456C161.822 70.8489 161.822 70.8522 161.822 70.8556C161.822 70.8589 161.822 70.8623 161.822 70.8656C161.822 70.8689 161.822 70.8723 161.822 70.8756C161.822 70.879 161.822 70.8823 161.822 70.8857C161.822 70.889 161.822 70.8924 161.822 70.8957C161.822 70.8991 161.822 70.9024 161.822 70.9058C161.822 70.9091 161.822 70.9125 161.822 70.9159C161.822 70.9192 161.822 70.9226 161.822 70.9259C161.822 70.9293 161.822 70.9327 161.822 70.936C161.822 70.9394 161.822 70.9428 161.822 70.9461C161.822 70.9495 161.822 70.9529 161.822 70.9562C161.822 70.9596 161.822 70.963 161.822 70.9664C161.822 70.9697 161.822 70.9731 161.822 70.9765C161.822 70.9799 161.822 70.9833 161.822 70.9867C161.822 70.99 161.822 70.9934 161.822 70.9968C161.822 71.0002 161.822 71.0036 161.822 71.007C161.822 71.0104 161.822 71.0138 161.822 71.0172C161.822 71.0206 161.822 71.0239 161.822 71.0273C161.822 71.0307 161.822 71.0341 161.822 71.0375C161.822 71.0409 161.822 71.0443 161.822 71.0478C161.822 71.0512 161.822 71.0546 161.822 71.058C161.822 71.0614 161.822 71.0648 161.822 71.0682C161.822 71.0716 161.822 71.075 161.822 71.0784C161.822 71.0819 161.822 71.0853 161.822 71.0887C161.822 71.0921 161.822 71.0955 161.822 71.099C161.822 71.1024 161.822 71.1058 161.822 71.1092C161.822 71.1127 161.822 71.1161 161.822 71.1195C161.822 71.1229 161.822 71.1264 161.822 71.1298C161.822 71.1332 161.822 71.1367 161.822 71.1401C161.822 71.1436 161.822 71.147 161.822 71.1504C161.822 71.1539 161.822 71.1573 161.822 71.1608C161.822 71.1642 161.822 71.1676 161.822 71.1711C161.822 71.1745 161.822 71.178 161.822 71.1814C161.822 71.1849 161.822 71.1883 161.822 71.1918C161.822 71.1953 161.822 71.1987 161.822 71.2022C161.822 71.2056 161.822 71.2091 161.822 71.2125C161.822 71.216 161.822 71.2195 161.822 71.2229C161.822 71.2264 161.822 71.2299 161.822 71.2333C161.822 71.2368 161.822 71.2403 161.822 71.2437C161.822 71.2472 161.822 71.2507 161.822 71.2542C161.822 71.2576 161.822 71.2611 161.822 71.2646C161.822 71.2681 161.822 71.2716 161.822 71.275C161.822 71.2785 161.822 71.282 161.822 71.2855C161.822 71.289 161.822 71.2925 161.822 71.296C161.822 71.2994 161.822 71.3029 161.822 71.3064C161.822 71.3099 161.822 71.3134 161.822 71.3169C161.822 71.3204 161.822 71.3239 161.822 71.3274C161.822 71.3309 161.822 71.3344 161.822 71.3379C161.822 71.3414 161.822 71.3449 161.822 71.3484C161.822 71.3519 161.822 71.3554 161.822 71.359C161.822 71.3625 161.822 71.366 161.822 71.3695C161.822 71.373 161.822 71.3765 161.822 71.38C161.822 71.3836 161.822 71.3871 161.822 71.3906C161.822 71.3941 161.822 71.3976 161.822 71.4012C161.822 71.4047 161.822 71.4082 161.822 71.4117C161.822 71.4153 161.822 71.4188 161.822 71.4223C161.822 71.4259 161.822 71.4294 161.822 71.4329C161.822 71.4365 161.822 71.44 161.822 71.4436C161.822 71.4471 161.822 71.4506 161.822 71.4542C161.822 71.4577 161.822 71.4613 161.822 71.4648C161.822 71.4684 161.822 71.4719 161.822 71.4754C161.822 71.479 161.822 71.4825 161.822 71.4861C161.822 71.4897 161.822 71.4932 161.822 71.4968C161.822 71.5003 161.822 71.5039 161.822 71.5074C161.822 71.511 161.822 71.5146 161.822 71.5181C161.822 71.5217 161.822 71.5253 161.822 71.5288C161.822 71.5324 161.822 71.536 161.822 71.5395C161.822 71.5431 161.822 71.5467 161.822 71.5502C161.822 71.5538 161.822 71.5574 161.822 71.561C161.822 71.5646 161.822 71.5681 161.822 71.5717C161.822 71.5753 161.822 71.5789 161.822 71.5825C161.822 71.586 161.822 71.5896 161.822 71.5932C161.822 71.5968 161.822 71.6004 161.822 71.604C161.822 71.6076 161.822 71.6112 161.822 71.6148C161.822 71.6184 161.822 71.622 161.822 71.6256C161.822 71.6292 161.822 71.6328 161.822 71.6364C161.822 71.64 161.822 71.6436 161.822 71.6472C161.822 71.6508 161.822 71.6544 161.822 71.658H163.822ZM162.672 68.4886C166.303 69.0412 169.037 70.6391 170.963 73.2584L172.574 72.0736C170.3 68.9809 167.07 67.1348 162.973 66.5114L162.672 68.4886ZM170.971 73.2699C172.896 75.8105 173.918 79.3926 173.918 84.132H175.918C175.918 79.1274 174.841 75.0655 172.565 72.0621L170.971 73.2699ZM173.918 84.132C173.918 86.6006 173.712 89.6256 173.295 93.2145L175.282 93.4455C175.704 89.8104 175.918 86.7034 175.918 84.132H173.918ZM174.288 94.33C181.65 94.33 187.112 93.1146 190.414 90.4548L189.159 88.8972C186.413 91.1094 181.543 92.33 174.288 92.33V94.33ZM188.796 89.8174C188.959 90.9546 189.038 91.9988 189.038 92.952H191.038C191.038 91.8892 190.95 90.7494 190.776 89.5346L188.796 89.8174Z" fill="#FEFEFE" fill-opacity="0.48"/>
</g>
<defs>
<filter id="filter0_d" x="0.241394" y="0.241394" width="235.517" height="235.517" filterUnits="userSpaceOnUse" color-interpolation-filters="sRGB">
<feFlood flood-opacity="0" result="BackgroundImageFix"/>
<feColorMatrix in="SourceAlpha" type="matrix" values="0 0 0 0 0 0 0 0 0 0 0 0 0 0 0 0 0 0 127 0"/>
<feOffset dx="4" dy="4"/>
<feGaussianBlur stdDeviation="5"/>
<feColorMatrix type="matrix" values="0 0 0 0 0 0 0 0 0 0 0 0 0 0 0 0 0 0 0.1 0"/>
<feBlend mode="normal" in2="BackgroundImageFix" result="effect1_dropShadow"/>
<feBlend mode="normal" in="SourceGraphic" in2="effect1_dropShadow" result="shape"/>
</filter>
<filter id="filter1_b" x="44.4814" y="62.3363" width="150.557" height="112.609" filterUnits="userSpaceOnUse" color-interpolation-filters="sRGB">
<feFlood flood-opacity="0" result="BackgroundImageFix"/>
<feGaussianBlur in="BackgroundImage" stdDeviation="2"/>
<feComposite in2="SourceAlpha" operator="in" result="effect1_backgroundBlur"/>
<feBlend mode="normal" in="SourceGraphic" in2="effect1_backgroundBlur" result="shape"/>
</filter>
</defs>
</svg>
